^C:\USERS\PEYTON\DOCUMENTS\INSTINCT\INSTINCT\INSTINCT\MAIN.CPP
/c /I"C:\PROGRAM FILES\NVIDIA GPU COMPUTING TOOLKIT\CUDA\V8.0\INCLUDE" /ZI /nologo /W3 /WX- /Od /D WIN32 /D WIN64 /D _DEBUG /D _CONSOLE /D _MBCS /Gm /EHsc /RTC1 /MDd /GS /fp:precise /Zc:wchar_t /Zc:forScope /Zc:inline /Fo"X64\DEBUG\\" /Fd"X64\DEBUG\VC140.PDB" /Gd /TP C:\USERS\PEYTON\DOCUMENTS\INSTINCT\INSTINCT\INSTINCT\MAIN.CPP
^C:\USERS\PEYTON\DOCUMENTS\INSTINCT\INSTINCT\INSTINCT\MEMORYMAPPED.CPP
/c /I"C:\PROGRAM FILES\NVIDIA GPU COMPUTING TOOLKIT\CUDA\V8.0\INCLUDE" /ZI /nologo /W3 /WX- /Od /D WIN32 /D WIN64 /D _DEBUG /D _CONSOLE /D _MBCS /Gm /EHsc /RTC1 /MDd /GS /fp:precise /Zc:wchar_t /Zc:forScope /Zc:inline /Fo"X64\DEBUG\\" /Fd"X64\DEBUG\VC140.PDB" /Gd /TP C:\USERS\PEYTON\DOCUMENTS\INSTINCT\INSTINCT\INSTINCT\MEMORYMAPPED.CPP
