^C:\USERS\PEYTON\DOCUMENTS\INSTINCT\INSTINCT\INSTINCT\MAIN.CPP
/c /I"C:\PROGRAM FILES\NVIDIA GPU COMPUTING TOOLKIT\CUDA\V8.0\INCLUDE" /ZI /nologo /W3 /WX- /Od /Oy- /D WIN32 /D _DEBUG /D _CONSOLE /D _MBCS /Gm /EHsc /RTC1 /MDd /GS /fp:precise /Zc:wchar_t /Zc:forScope /Zc:inline /Fo"DEBUG\\" /Fd"DEBUG\VC140.PDB" /Gd /TP /analyze- C:\USERS\PEYTON\DOCUMENTS\INSTINCT\INSTINCT\INSTINCT\MAIN.CPP
^C:\USERS\PEYTON\DOCUMENTS\INSTINCT\INSTINCT\INSTINCT\MEMORYMAPPED.CPP
/c /I"C:\PROGRAM FILES\NVIDIA GPU COMPUTING TOOLKIT\CUDA\V8.0\INCLUDE" /ZI /nologo /W3 /WX- /Od /Oy- /D WIN32 /D _DEBUG /D _CONSOLE /D _MBCS /Gm /EHsc /RTC1 /MDd /GS /fp:precise /Zc:wchar_t /Zc:forScope /Zc:inline /Fo"DEBUG\\" /Fd"DEBUG\VC140.PDB" /Gd /TP /analyze- C:\USERS\PEYTON\DOCUMENTS\INSTINCT\INSTINCT\INSTINCT\MEMORYMAPPED.CPP
